<?xml version="1.0" encoding="UTF-8" standalone="no"?>
<!-- Created with Inkscape (http://www.inkscape.org/) -->

<svg
   xmlns:dc="http://purl.org/dc/elements/1.1/"
   xmlns:cc="http://creativecommons.org/ns#"
   xmlns:rdf="http://www.w3.org/1999/02/22-rdf-syntax-ns#"
   xmlns:svg="http://www.w3.org/2000/svg"
   xmlns="http://www.w3.org/2000/svg"
   xmlns:xlink="http://www.w3.org/1999/xlink"
   xmlns:sodipodi="http://sodipodi.sourceforge.net/DTD/sodipodi-0.dtd"
   xmlns:inkscape="http://www.inkscape.org/namespaces/inkscape"
   id="svg2"
   version="1.1"
   inkscape:version="0.48.5 r10040"
   width="2481"
   height="3503"
   sodipodi:docname="Pepper-and-Carrot_by-David-Revoy_E04P01.svg">
  <metadata
     id="metadata8">
    <rdf:RDF>
      <cc:Work
         rdf:about="">
        <dc:format>image/svg+xml</dc:format>
        <dc:type
           rdf:resource="http://purl.org/dc/dcmitype/StillImage" />
        <dc:title />
      </cc:Work>
    </rdf:RDF>
  </metadata>
  <defs
     id="defs6" />
  <sodipodi:namedview
     pagecolor="#ffffff"
     bordercolor="#666666"
     borderopacity="1"
     objecttolerance="10"
     gridtolerance="10"
     guidetolerance="10"
     inkscape:pageopacity="0"
     inkscape:pageshadow="2"
     inkscape:window-width="1292"
     inkscape:window-height="745"
     id="namedview4"
     showgrid="false"
     inkscape:zoom="0.36045077"
     inkscape:cx="1385.0943"
     inkscape:cy="-574.93357"
     inkscape:window-x="66"
     inkscape:window-y="-8"
     inkscape:window-maximized="1"
     inkscape:current-layer="layer1" />
  <g
     inkscape:groupmode="layer"
     id="layer2"
     inkscape:label="artwork"
     sodipodi:insensitive="true">
    <image
       sodipodi:absref="C:\Users\Gwen\Documents\Academie_du_Gallo\Traduction_BD\peppercarrot_ep04_translation-master\go\../gfx_Pepper-and-Carrot_by-David-Revoy_E04P01.png"
       xlink:href="../gfx_Pepper-and-Carrot_by-David-Revoy_E04P01.png"
       width="2481"
       height="3503"
       id="image10"
       x="0"
       y="0" />
  </g>
  <g
     inkscape:groupmode="layer"
     id="layer3"
     inkscape:label="speechbubbles">
    <path
       style="fill:#ffffff;stroke:none"
       d="m 436.84751,2416.176 c -5.96724,-46.0547 -11.93451,-140.025 0,-160.4939 7.59468,0 20.07167,-0.465 20.07167,-0.465 l -11.93451,-25.1208 21.69911,6.0476 10.84954,-8.3737 -7.05221,-13.9558 19.52919,6.5127 9.76459,-13.4908 16.27432,9.7693 8.13718,-13.9561 17.90173,11.1649 33.09115,-6.0476 c 81.20202,-2.4651 161.4961,-6.2278 246.82722,-2.7912 l 26.03892,-8.8388 7.59467,13.0256 13.56195,0.4651 13.01946,-5.5824 13.01946,6.0476 43.39819,-4.1868 14.1044,12.0952 16.81682,-10.2343 5.42477,13.4907 16.81675,-8.3735 2.71241,8.8386 40.14341,-10.2344 -5.9673,20.934 c 0,0 29.8363,9.304 50.9929,2.326 2.17,4.652 -1.085,13.0257 -1.085,13.0257 l 10.8497,4.6519 0,12.0952 c 0,0 21.699,15.8167 23.8689,20.0036 2.1698,4.1868 7.0522,118.6258 -0.5424,136.7684 5.9671,0 9.7646,2.7913 9.2222,5.5825 -0.5425,2.7913 -4.8825,10.6995 -4.8825,10.6995 0,0 5.9673,7.4432 4.34,9.7693 -1.6275,2.326 -4.8824,5.5824 -4.8824,5.5824 0,0 5.4249,6.0475 3.7973,7.9085 -1.6275,1.8606 -10.8495,5.1171 -14.6469,6.9778 4.3399,3.7216 8.1372,11.63 4.8824,13.4908 -3.255,1.8609 -10.8496,3.2564 -10.8496,3.2564 l -2.7123,4.652 c 0,0 -1.085,9.304 -3.7973,9.7692 -2.7126,0.4653 -14.1045,-4.652 -15.732,-3.7217 -1.6274,0.9305 -5.9672,8.3737 -8.6796,8.3737 -2.7124,0 -11.3922,-8.8389 -11.3922,-8.8389 -1.1593,1.9884 -144.42013,5.3252 -156.2334,3.2565 -11.88491,-2.0812 -58.58757,2.7912 -65.09731,2.7912 -6.5097,0 -33.63358,-1.3955 -37.43091,-2.326 -3.79735,-0.9304 -18.98672,-4.1868 -24.41151,-3.7217 -5.42478,0.4652 -15.73185,5.1174 -21.6991,5.1174 -5.96724,0 -40.14331,-2.7912 -46.65305,-2.3261 -6.50973,0.4652 -36.34598,2.3261 -41.22828,2.3261 -4.88229,0 -59.67252,-5.1174 -65.63977,-5.5825 -5.96725,-0.4653 -32.00618,4.652 -36.88846,4.1868 -4.8823,-0.4652 -32.54864,-4.6521 -41.22829,-4.1868 -8.67964,0.4651 -41.22829,-6.0476 -43.3982,-5.5824 -2.16992,0.4652 -5.44673,0.9294 -25.49643,0 10.30708,-6.978 7.05221,-13.0255 7.05221,-13.0255 l -7.5947,-3.7217 1.08496,-4.1868 -15.73185,-6.9778 2.16991,-5.1174 1.08495,-8.3735 -15.73184,-6.5128 24.95396,-18.608 z"
       id="path3894"
       inkscape:connector-curvature="0"
       sodipodi:nodetypes="cccccccccccccccccccccccccccccccscscccccsccssscssssssssssscccccccccc" />
    <path
       style="color:#000000;fill:#ffffff;fill-opacity:1;fill-rule:nonzero;stroke:none;stroke-width:1px;marker:none;visibility:visible;display:inline;overflow:visible;enable-background:accumulate"
       d="m 780.27518,2515.2788 c 17.06554,77.0562 55.5667,262.6609 88.02344,300.6246 32.45673,37.9637 46.6252,62.8989 112.44368,59.1459 -73.94569,-18.6774 -108.46592,-85.8157 -138.94095,-207.3702 -30.47505,-121.5546 1.59342,-216.6335 1.59342,-216.6335 l -67.4335,9.6187 z"
       id="path3896"
       inkscape:connector-curvature="0" />
    <path
       style="color:#000000;fill:#ffffff;fill-opacity:1;fill-rule:nonzero;stroke:none;stroke-width:1px;marker:none;visibility:visible;display:inline;overflow:visible;enable-background:accumulate"
       d="m 677.26133,2596.3773 c 11.92058,-3.668 11.92058,-11.0043 6.95368,-20.3783 3.47683,-0.4076 15.3974,2.0378 13.41065,-4.4833 2.98015,-0.8151 6.95366,-0.8151 4.47022,-6.1136 3.47684,-0.4076 13.41065,1.6303 10.9272,-3.6681 6.45697,-1.2227 67.05328,-2.853 88.90768,-0.8151 21.8544,2.0379 80.46394,0.4076 86.42423,0 5.9603,-0.4076 51.65586,0 55.6294,0 3.97352,0 19.86763,4.4832 24.83458,6.9286 7.4503,-3.2605 16.8874,-2.0377 16.8874,-2.0377 0,0 0,13.8573 1.4901,15.08 1.4901,1.2227 8.9405,-2.0378 10.4306,0 1.49,2.0378 -10.4306,14.2649 -8.9405,14.6724 1.49,0.4077 13.41073,4.8909 13.41073,6.5212 0,1.6303 -9.43723,9.374 -8.94063,9.7816 0.4968,0.4075 7.94723,5.706 6.95393,10.1893 8.9403,1.6301 13.4106,5.7059 15.894,8.5589 -3.9736,5.2984 -13.4107,10.1893 -15.3974,13.0422 2.4835,4.8908 8.9405,11.4119 7.4503,13.4499 -1.4901,2.0377 -8.44383,1.6302 -13.41073,-0.8152 1.9869,6.1135 1.4902,55.0217 -7.4503,72.9547 2.4835,4.0757 6.9537,6.9287 7.9471,11.0044 0.9934,4.0757 -1.9869,10.5969 -1.4901,12.6346 0.4967,2.0379 4.4702,8.9666 3.9736,12.2271 -0.4968,3.2605 -2.4835,6.5211 -5.4636,8.5589 -0.4969,3.2606 1.9867,5.7061 -0.4969,6.5212 -2.4834,0.8151 -12.4172,-3.6682 -14.9005,-2.853 -2.4835,0.8151 -0.4968,11.8196 -2.9803,13.8573 -2.4834,2.0378 -56.12601,7.3362 -68.04659,2.853 -12.41727,-0.8152 -104.30511,16.7104 -142.55031,9.7816 -4.47021,-0.8151 -3.47684,-3.668 -6.95368,-4.4832 -3.47684,-0.8152 -5.4636,2.0379 -12.91397,1.2227 -6.45698,-4.0757 -14.90072,-4.4833 -28.31138,-24.0466 -4.47021,0 -11.92058,2.0378 -12.91396,-1.2227 -0.99339,-3.2606 0.49669,-5.7058 0.49669,-5.7058 0,0 -4.96691,1.2226 -5.4636,-1.2229 -0.49669,-2.4454 6.45698,-8.9664 5.96029,-10.1891 -0.49669,-1.2227 -14.40404,2.4454 -14.90073,-0.4076 -0.49669,-2.853 5.4636,-9.7817 4.96691,-11.8195 -0.49669,-2.0379 -24.83455,-33.4207 -16.88749,-128.7917 3.97353,-1.2228 7.94706,-2.4455 7.45036,-4.0757 -0.49669,-1.6304 -6.45698,-4.8909 -6.45698,-4.8909 z"
       id="path3915"
       inkscape:connector-curvature="0" />
    <path
       style="color:#000000;fill:#ffffff;fill-opacity:1;fill-rule:nonzero;stroke:none;stroke-width:1px;marker:none;visibility:visible;display:inline;overflow:visible;enable-background:accumulate"
       d="m 2161.9635,2759.6873 c 75.5442,-65.8317 129.3057,-115.4309 140.8923,-189.8298 11.5865,-74.3988 -1.8538,-91.5331 -5.5615,-100.5511 -12.977,1.8036 -33.8327,13.978 -38.0039,19.3888 1.8539,-19.8397 -11.5865,-82.5151 -31.9788,-107.3147 -20.3923,-24.7996 -39.3943,-7.6653 -39.3943,-7.6653 0,0 61.177,94.6894 55.1519,157.8157 12.0501,-12.6253 34.7597,-36.974 40.3212,-32.465 5.5615,4.5091 8.3423,64.9299 -3.7077,92.4349 -12.05,27.5051 -38.9308,101.9039 -117.7192,168.1865 z"
       id="path3923"
       inkscape:connector-curvature="0" />
    <path
       style="color:#000000;fill:#ffffff;fill-opacity:1;fill-rule:nonzero;stroke:none;stroke-width:1px;marker:none;visibility:visible;display:inline;overflow:visible;enable-background:accumulate"
       d="m 1837.8041,2353.2992 c 0,0 38.1255,7.7521 44.1771,11.9264 6.0516,4.1742 30.2582,-2.9816 -3.631,44.7238 34.4944,-15.5043 61.7268,-32.2012 74.4353,-30.4122 -5.4464,11.9263 -11.4981,27.4306 -11.4981,27.4306 0,0 31.4685,-12.5227 37.5202,-11.9263 -1.8155,5.3668 2.4207,16.1005 2.4207,16.1005 l 16.3394,-2.3852 4.8413,14.3116 c 0,0 65.3578,-25.0454 73.2249,-22.0638 7.8672,2.9816 -3.6309,34.5865 -3.6309,34.5865 l 17.5498,-12.5227 8.4723,0.5963 20.5756,-20.2748 6.6568,11.33 4.8413,-4.1742 9.6826,4.7706 22.9963,-17.2933 7.8671,1.789 19.9705,27.4306 10.893,-12.5227 5.4464,-0.5963 35.7048,1.1927 2.4206,-2.9816 6.0517,-1.1927 8.4723,-5.9631 4.8413,-13.7154 10.2878,0 20.5756,12.5227 9.6827,8.3485 7.2619,-20.2748 4.2362,-2.3853 1.2104,-12.5227 23.6014,9.5411 7.262,5.9632 1.8154,-10.7337 7.8672,-0.5964 14.5239,4.1743 15.7344,11.33 23.6014,12.5227 -35.7048,-45.9165 -8.4722,-8.3484 30.8634,-8.3485 0,-95.4108 -12.1034,-131.19 -527.0986,6.5595 -13.3136,86.4661 0.6051,76.925 -3.0258,25.6417 26.6273,8.9448 -26.0221,13.7153 16.3394,9.541 z"
       id="path3931"
       inkscape:connector-curvature="0" />
  </g>
  <g
     inkscape:groupmode="layer"
     id="layer1"
     inkscape:label="txt">
    <flowRoot
       xml:space="preserve"
       id="flowRoot2987"
       style="font-size:12px;font-style:normal;font-variant:normal;font-weight:normal;font-stretch:normal;line-height:125%;letter-spacing:0px;word-spacing:0px;fill:#000000;fill-opacity:1;stroke:none;font-family:Lavi;-inkscape-font-specification:Lavi"
       transform="translate(2.6145936,-171.01037)"><flowRegion
         id="flowRegion2989"><rect
           id="rect2991"
           width="973.52362"
           height="213.03587"
           x="120.55251"
           y="265.53046"
           style="font-style:normal;font-variant:normal;font-weight:normal;font-stretch:normal;font-family:Lavi;-inkscape-font-specification:Lavi" /></flowRegion><flowPara
         id="flowPara2993"
         style="font-size:48px" /><flowPara
         id="flowPara2995"
         style="font-size:48px;text-align:center;text-anchor:middle">Le journ de devant le concours de pocions, </flowPara><flowPara
         style="font-size:48px;text-align:center;text-anchor:middle"
         id="flowPara3113">a deuz oures du matin…</flowPara></flowRoot>    <flowRoot
       xml:space="preserve"
       id="flowRoot2987-4"
       style="font-size:12px;font-style:normal;font-variant:normal;font-weight:normal;font-stretch:normal;text-align:center;line-height:125%;letter-spacing:0px;word-spacing:0px;text-anchor:middle;fill:#000000;fill-opacity:1;stroke:none;font-family:Lavi;-inkscape-font-specification:Lavi"
       transform="translate(295.10383,1956.6786)"><flowRegion
         id="flowRegion2989-5"><rect
           id="rect2991-7"
           width="707.29022"
           height="356.89087"
           x="120.55251"
           y="265.53046"
           style="font-style:normal;font-variant:normal;font-weight:normal;font-stretch:normal;text-align:center;text-anchor:middle;font-family:Lavi;-inkscape-font-specification:Lavi" /></flowRegion><flowPara
         style="font-size:48px;text-align:center;text-anchor:middle"
         id="flowPara3033">Ça y ét du coup-la...</flowPara><flowPara
         style="font-size:48px;text-align:center;text-anchor:middle"
         id="flowPara3798">Od la pocion-ilae, </flowPara><flowPara
         style="font-size:48px;text-align:center;text-anchor:middle"
         id="flowPara3143">pas aoqhun, memme Safran, </flowPara><flowPara
         style="font-size:48px;text-align:center;text-anchor:middle"
         id="flowPara3141">qi seront pour jouer od mai !</flowPara></flowRoot>    <flowRoot
       xml:space="preserve"
       id="flowRoot2987-4-8"
       style="font-size:12px;font-style:normal;font-variant:normal;font-weight:normal;font-stretch:normal;text-align:center;line-height:125%;letter-spacing:0px;word-spacing:0px;text-anchor:middle;fill:#000000;fill-opacity:1;stroke:none;font-family:Lavi;-inkscape-font-specification:Lavi"
       transform="matrix(0.96141471,0,0,0.91963896,435.33509,2357.2567)"><flowRegion
         id="flowRegion2989-5-9"><rect
           id="rect2991-7-4"
           width="602.40173"
           height="310.73996"
           x="120.55251"
           y="265.53046"
           style="font-style:normal;font-variant:normal;font-weight:normal;font-stretch:normal;text-align:center;text-anchor:middle;font-family:Lavi;-inkscape-font-specification:Lavi" /></flowRegion><flowPara
         style="font-size:48px;text-align:center;text-anchor:middle"
         id="flowPara3849">J'ae seument </flowPara><flowPara
         style="font-size:48px;text-align:center;text-anchor:middle"
         id="flowPara3135">bezein de </flowPara><flowPara
         style="font-size:48px;text-align:center;text-anchor:middle"
         id="flowPara3137">l'assaeyer...</flowPara></flowRoot>    <flowRoot
       xml:space="preserve"
       id="flowRoot2987-4-8-2"
       style="font-size:12px;font-style:normal;font-variant:normal;font-weight:normal;font-stretch:normal;text-align:center;line-height:125%;letter-spacing:0px;word-spacing:0px;text-anchor:middle;fill:#000000;fill-opacity:1;stroke:none;font-family:Lavi;-inkscape-font-specification:Lavi"
       transform="matrix(1.4179226,0,0,1.4152108,1527.4333,1745.8167)"><flowRegion
         id="flowRegion2989-5-9-2"><rect
           id="rect2991-7-4-2"
           width="602.40173"
           height="310.73996"
           x="120.55251"
           y="265.53046"
           style="font-style:normal;font-variant:normal;font-weight:normal;font-stretch:normal;text-align:center;text-anchor:middle;font-family:Lavi;-inkscape-font-specification:Lavi" /></flowRegion><flowPara
         style="font-size:48px;text-align:center;text-anchor:middle"
         id="flowPara3798-1-6" /><flowPara
         style="font-size:48px;text-align:center;text-anchor:middle"
         id="flowPara3849-2">CAAAAAAAA~</flowPara><flowPara
         style="font-size:48px;text-align:center;text-anchor:middle"
         id="flowPara3892">~AAAROTE !!!</flowPara></flowRoot>  </g>
</svg>
